<!-- Generator: Adobe Illustrator 21.0.2, SVG Export Plug-In  -->
<svg version="1.1"
	 xmlns="http://www.w3.org/2000/svg" xmlns:xlink="http://www.w3.org/1999/xlink" xmlns:a="http://ns.adobe.com/AdobeSVGViewerExtensions/3.0/"
	 x="0px" y="0px" width="367px" height="331.5px" viewBox="0 0 367 331.5" style="enable-background:new 0 0 367 331.5;"
	 xml:space="preserve">
<style type="text/css">
	.st0{fill:#FFFFFF;}
</style>
<defs>
</defs>
<path class="st0" d="M167.7,52.1l38-1c0,0,24-16,49-18s36,0,44,16s6,30,0,48s-16,41-21,46c17-3,80-18,80-18s16-34,6-80s-63-45-63-45
	s-26-1-40,4S209.7,20.1,167.7,52.1z"/>
<path class="st0" d="M52.7,190.1c17,0,26,0,26,0s-14,23-9,48s24,30,37,30s43-11,66-24s37-26,37-26l-22-24l120-26l-26,120l-25-25
	c0,0-41,33-56,40s-57,32-96,28s-54-16-65-44S43.7,214.1,52.7,190.1z"/>
<path class="st0" d="M5.4,83.7c5.1-9,15.6-14.4,27-13.7c7.6,0.4,13.7,3.1,18.6,8.3c5,5,7.3,10.8,7.1,17.6c0,1.9-0.3,3.7-0.9,5.7
	c-1.7,5.6-5.1,9.8-10.1,12.7c4.7,1.7,8.4,5,11.1,10c2.9,5,4,10,3.6,15.1c-0.7,7.9-4.4,14.4-11.1,19.6c-6.7,5.1-14.3,7.4-23,6.7
	C15.6,164.9,5,157.1,0,146.2l11.3-6.1c3,6.7,10.1,12.3,17.4,12.8h-0.1c5.3,0.3,9.8-1,13.8-4c4.1-3,6.3-6.9,6.4-11.3
	c0.1-4.4-1.7-8.4-5.3-11.7s-7.7-5-12.7-5H20.3v-12.4h10.6c6.4,0.1,11.7-4.4,12.8-10.7c0.7-3.9,0.1-7.1-1.6-9.6
	c-2.1-3.3-5.9-5.1-10.8-5.4c-6.7-0.6-12.1,2.3-16.3,8.4L5.4,83.7z"/>
<path class="st0" d="M130.3,93c-3.6-7.1-8.8-10.7-15.8-10.7c-6.4,0-11.7,3.1-15.6,9.3c-3.9,6.1-5.3,13.8-4.4,23.3
	c2.7-7,9.1-10.6,19.1-10.6c8.3,0,15.3,3.3,20.8,9.7c5.6,6.4,8.3,13.8,8,22.3c-0.4,8.4-3.7,15.6-9.7,21.4c-6,5.9-13.1,8.6-21.6,8.1
	c-16.6-0.7-28.1-12.7-29.7-32c-0.9-11.7-0.3-23.4,1.6-35.3c1.4-8.6,5-15.6,10.7-20.8c5.9-5.3,12.8-7.9,21.3-7.6
	c11.8,0.6,21,5,26.7,18L130.3,93z M99.3,147.2c3.4,3.6,7.6,5.4,12.4,5.6c4.9,0.1,9-1.3,12.4-4.6c3.6-3.3,5.4-7.6,5.6-12.6
	c0.4-10.1-6.7-18.1-16.6-18.6c-5-0.1-9.3,1.4-13,4.7c-3.7,3.3-5.7,7.4-5.9,12.4C94.3,139.4,96.1,143.7,99.3,147.2z"/>
<path class="st0" d="M165.7,84.3c5-9.1,14.1-14.1,27.1-14.1c13.1,0,22.3,5,27,14.1c5,9.1,6.7,19.6,6.7,33.8
	c0,14.1-1.7,24.4-6.7,33.5c-4.7,9.1-14,14.1-27,14.1c-26.7,0-33.8-21.6-33.8-47.7C159,104,161,93.4,165.7,84.3z M192.8,153.1
	c15.6,0,21-13.3,21-35c0-21.8-5.4-35.1-21-35.1c-15.6,0-21,13.3-21,35.1C171.9,139.8,177.3,153.1,192.8,153.1z"/>
<path class="st0" d="M266.6,78.4c-2.9-2.8-6.6-4.2-10.9-4.2c-4.3,0-7.9,1.4-10.9,4.2c-2.9,2.8-4.4,6.4-4.4,10.9
	c0,4.6,1.4,8.2,4.4,11.1c2.9,2.9,6.6,4.3,10.9,4.3c4.3,0,7.9-1.4,10.9-4.3c2.9-2.9,4.5-6.5,4.5-11.1
	C271.1,84.8,269.6,81.1,266.6,78.4z M255.7,99.1c-5.4,0-9.6-4-9.6-9.8c0-5.7,4.3-9.6,9.6-9.6c5.4,0,9.6,3.8,9.6,9.6
	C265.4,95.1,261.1,99.1,255.7,99.1z"/>
</svg>
